X,Y,Z
19,250,5.336308872961232
4,250,8.624601616558998
1,100,12.460057730556986
4,200,8.94447988517723
16,225,5.8161135289519
1,225,11.498270428451741
4,75,10.323500793387225
1,50,2.119660096269251
10,250,6.392071262747209
13,225,6.186646679487755
1,200,11.675692736068816
19,175,5.651296073133662
7,225,7.1198836173057
16,175,6.163847690850532
19,100,6.3133430800728
10,50,8.499470752944527
16,150,5.974744913160703
13,150,6.340196146975089
13,125,6.6640110961262655
4,125,9.705202657740813
13,100,7.045108874659045
4,50,10.86227326189961
10,125,7.300396160467968
7,200,7.7631668743697
7,125,8.32775032702555
16,75,6.858119926232977
4,100,10.109027461185468
7,250,7.16102032571448
1,125,12.220965932868904
7,75,8.74311022145739
4,225,8.76809445427667
16,50,7.362565548696679
13,50,7.939815522859363
16,250,5.729248535327948
7,50,9.429898498206725
10,175,6.716806688838539
4,150,9.35841288894229
10,100,7.65035796104827
7,175,7.721630253342067
19,125,5.686563954539787
13,75,7.281141690739724
19,50,6.938563062515165
19,200,5.8052646906301435
7,100,8.661045942466854
10,150,7.085326440730843
13,200,5.801178805149697
4,175,9.173340070104045
19,225,5.546040220944671
1,175,11.801337320833914
10,75,7.707260578544737
13,250,6.104656202223843
13,175,6.365755133971145
1,75,12.62391321423559
16,200,5.60651144474257
1,250,11.324824382786032
19,150,6.226343098749871
7,150,8.073760323615863
10,225,6.504462845243486
19,75,6.531528307007387
1,150,11.9574963366552
16,125,5.899693277310077
10,200,6.501913536907834
16,100,6.460800291081011
