X,Y,Z
45,100,-1.024086877006127
35,175,-0.9693870658945345
25,125,-1.0442818336711093
15,75,-1.1867512784433534
5,50,-1.342482105996416
25,200,-0.9897759104717075
5,100,-1.2597323985461046
15,100,-1.1522694319005797
15,50,-1.2342360644383348
5,25,-1.4261560178258783
25,100,-1.0860889604720605
35,200,-0.9392222230320397
45,50,-1.1228041344917221
25,175,-1.0081194163710718
15,200,-1.069313552641215
15,25,-1.3016898767825122
35,100,-1.0714177844721557
5,125,-1.240017071863889
5,75,-1.285549123276038
25,150,-1.0153921400275836
25,50,-1.1865405752662403
15,125,-1.1148205958377926
25,75,-1.135680763932246
35,150,-0.9935399097074135
45,175,-0.936241781517114
45,125,-0.9933960791994205
5,150,-1.2112125751364349
35,50,-1.1554531232443763
45,150,-0.9732073708843761
5,175,-1.1910789044468555
45,200,-0.9198205199450473
5,200,-1.166245361914129
35,75,-1.0952295192528534
15,175,-1.0555768750974577
45,75,-1.067238191914128
15,150,-1.071525407566225
35,125,-1.0059928750849496
