X,Y,Z
13,325,4.092336252986242
7,300,4.396888867679993
16,300,4.0402078806761486
16,275,4.19556848103565
7,350,4.447005424899592
1,350,5.576217387033012
4,350,4.872120641036889
19,325,3.7553273588036666
10,275,4.094075509060417
1,325,5.604101931655355
16,250,3.9641797372640153
1,250,5.779089436471057
4,325,4.863042957293533
4,275,4.794599213119186
19,250,3.939975017163608
13,250,4.11107624151316
4,250,4.945067952280244
7,275,4.379322960647436
1,300,5.709676923893447
10,325,4.261412968155056
10,350,4.195549629009302
13,300,4.2001250902227385
1,275,5.74309507496474
7,250,4.426434491923595
13,275,4.137454271318213
16,325,4.086251733696627
19,350,3.8970402753441475
13,350,4.044518931772739
19,300,3.9220001660721158
4,300,4.802600157090652
7,325,4.47983871843138
10,300,4.300167062813324
16,350,3.8319182426018816
19,275,4.139708650717333
10,250,4.113050431735067
