X,Y,Z
7,8,5.082989050113859
4,7,5.5143693419204425
2,6,5.911549906112199
8,6,5.288743886805937
1,5,6.215765548706176
3,7,5.665624309438449
10,7,5.159369376191402
2,4,6.07717945463896
1,1,6.801301085290363
10,4,5.381141634855879
6,1,6.292668832777918
4,6,5.568181202331442
5,2,6.0198363309554255
6,5,5.471279357228307
6,6,5.398292111867461
3,5,5.7902484536797
5,4,5.678283293481206
7,7,5.248842109601372
6,8,5.2039733588471035
1,8,5.970027201626036
2,10,5.514740541181622
4,9,5.221221169870582
5,5,5.519870399059238
3,6,5.729188196798739
7,9,4.954481291494684
2,1,6.617379264115749
8,8,5.0153160555230345
7,10,4.92687673641954
2,7,5.827721573423006
8,1,6.1519821175614595
10,5,5.259663342106399
8,4,5.509700807305838
2,5,5.968333263491431
7,1,6.222291148866718
10,9,4.797608495222159
6,7,5.3517943344184555
3,3,6.038396953219544
4,1,6.413655164894824
6,9,5.108465121733636
1,2,6.557070414072462
1,3,6.441060279521361
8,5,5.370557264670223
5,7,5.410612188382759
8,3,5.652436441150384
7,3,5.742515390342826
6,2,5.956730991863454
4,4,5.73873510615895
9,2,5.692815899897648
4,10,5.178538895640317
5,9,5.126172918628742
7,5,5.40148029836518
10,2,5.627628251678176
7,4,5.56902433982469
3,10,5.3722796655855
5,1,6.340075417328377
9,4,5.439661267903222
10,8,4.967306735281241
5,10,5.069760621868009
2,9,5.568230823016189
10,1,6.038442503693252
4,2,6.081951298431015
10,3,5.487213649261848
9,8,5.011736194871485
8,9,4.88493616697037
7,2,5.867827685427561
1,4,6.31904668277458
3,2,6.1931837822104265
1,6,6.155206199930878
1,9,5.885322431412945
5,3,5.870156815349673
3,4,5.89899148142785
9,1,6.084362049533578
10,10,4.792260309030958
3,9,5.3984124885881695
4,3,5.919138167858066
7,6,5.310548499749343
6,10,5.059293621559989
3,8,5.517310680828599
3,1,6.513113971134006
9,6,5.25679356621726
2,2,6.3187024044742754
2,8,5.685682656161579
9,7,5.215902307017795
9,10,4.869894399562078
8,7,5.21266572102821
8,10,4.873922539574703
1,10,5.840142850646338
10,6,5.200603592114227
6,3,5.829261910698138
5,8,5.260056501181418
5,6,5.463418161811651
9,3,5.5566439146104685
6,4,5.64866190635956
9,5,5.322903556463853
8,2,5.7756462760066425
4,5,5.618378806249673
1,7,6.089773392476593
4,8,5.355052669507982
2,3,6.1871612387175325
9,9,4.86004250810618
