X,Y,Z
150,60,2.5855613026677875
30,1,5.770467157368024
150,100,2.7396321589710384
150,10,2.9096531722090395
1,150,3.525379565271768
40,170,2.4213675696163617
20,160,2.5152205783610535
10,50,3.09859411675624
40,10,3.260595442557973
40,100,2.200718505573875
50,70,2.975308696848348
30,80,2.5607032896456574
180,70,2.4852941891156703
70,140,3.0812049643333213
10,90,2.519131691734953
80,160,2.8132271885509463
20,30,3.541031398242159
10,110,2.410277196806354
20,70,2.3977047923006265
110,160,3.157374519953204
140,60,2.6465738268701955
20,1,5.878673372740652
80,140,3.0440434873060043
160,150,3.370402748142161
140,170,3.2584914988870186
170,60,2.4515637350806445
30,40,3.279232483628664
60,190,2.850729104142756
1,160,3.4461231647605777
170,80,2.3147522965690515
1,1,5.893004985066353
90,40,2.6683511848400463
80,50,2.9523052675019232
80,20,2.349093967389719
180,110,2.5803187321689838
80,190,2.8506140081994777
160,190,2.9258361883193023
130,20,2.253973537887125
120,80,2.8617963495532193
1,30,4.183029086980247
160,20,1.920214033671701
20,20,3.595370092127445
110,40,2.834005442768273
180,10,2.693689632382947
1,130,3.3988046913336003
60,80,2.8260967620620328
120,20,2.208984434573644
180,160,3.4129617255271865
1,140,3.611275746945399
120,190,3.1288632804523373
140,190,3.1954876753896975
20,180,2.396619659128018
180,190,3.190623524767149
140,30,2.513255266526505
40,190,2.378275749270907
40,140,2.6050010241281516
30,70,2.652071274267892
80,130,2.602883892331495
10,140,2.762340409794587
50,180,2.550396125515101
180,80,2.1818886010470546
70,10,2.757375376305124
20,190,2.3215305982581613
40,70,2.7544448369349985
150,30,2.360690251055043
140,70,2.8986067033481495
1,170,3.43373992937121
110,30,2.4295407285422894
140,180,3.2143436911754195
130,90,2.4900141736723835
1,40,3.8464871911942513
120,160,3.161425867305571
190,180,3.148160724189299
20,80,2.3255677819993914
1,50,3.6185428287117722
180,180,3.22412873567744
170,10,2.5817935824892833
60,140,2.8961973923950244
10,70,2.7730040635828828
20,10,3.813162698270072
100,130,2.953712259254806
50,150,2.7946797378317756
190,80,2.287583352976845
30,10,3.767297764613026
50,170,2.5896390254084096
130,170,3.2762669667515545
50,50,3.2296139822003562
80,150,2.949306290179175
110,130,2.971058140392054
110,140,3.364684485002684
80,80,2.9456272579825002
10,10,4.2611745718555225
100,120,2.89403295033471
70,20,2.401782529959367
120,50,2.7323038980757626
90,130,2.5649160369619493
180,1,4.683732426166922
30,120,2.1706506032451003
120,120,2.972251207587016
10,100,2.437134652955382
90,120,2.565941595241776
20,120,2.034478916120989
30,50,3.3069141373390574
120,1,5.437207163353297
190,100,2.3641844560221976
140,160,3.270421531918125
120,140,3.381902796913967
160,40,2.3487789669825374
170,40,2.287648970442586
70,1,5.816125900079031
130,1,5.414384718270636
30,30,3.612373689098093
170,180,3.1261616268963084
70,190,3.050213896466821
130,40,2.7442736920265784
180,120,2.666409217587711
150,160,3.317409096255725
150,20,2.2150072395093807
100,190,3.0431870508575494
70,30,2.7706455139763304
60,50,3.155178837845551
60,1,5.995855805285086
130,160,3.170865688457617
140,110,2.905969289040957
50,130,2.4674524027198754
50,60,3.2469317016721955
100,110,2.8766174326864182
150,190,3.2827770768324327
80,170,2.9747114953794953
70,70,3.077813687199182
110,60,2.8538209738407394
50,80,2.9631859756938965
190,90,2.430594575212744
120,170,3.272734166751508
150,170,3.3204730912486013
90,20,2.1339539601686663
30,160,2.5908898976719565
100,150,3.3069020421549644
100,140,3.4016632107332
100,170,3.2069315329347203
170,110,2.632478533750501
50,30,2.9115490379548232
10,180,2.6701295007932613
20,60,2.767926903466744
40,130,2.2173565485354882
100,10,2.750393197743052
170,170,3.1637320980684036
170,20,1.847501394804836
10,170,2.6588400760211854
90,90,2.8308305882035567
60,100,2.5433055332150865
50,40,2.9915896304851244
70,180,3.000035707851156
170,100,2.395674810351789
170,1,4.641289407253033
140,120,2.997687998685456
30,100,2.111353049446835
10,130,2.4612397346422816
190,140,3.1403456598183412
170,190,3.0685045477294395
70,110,2.56541126032174
160,50,2.5988870706765685
100,80,2.963549800284481
160,120,2.7772279242424123
40,90,2.302496344590915
160,140,3.2633997666174444
180,20,1.8865036458641304
120,180,3.166042230646151
130,10,2.746911166400523
190,60,2.406146663727884
190,20,1.81224807102001
100,100,2.916113158833824
90,150,2.9542829062760307
190,170,3.1669565562222277
90,100,2.660437993607866
130,60,2.5447091759171703
110,50,2.9463414899342673
60,60,3.258546809599647
60,110,2.3880250988238103
110,120,2.9756386208136822
60,70,2.9790027819041573
10,190,2.6359552844174083
80,100,2.648024440969455
20,100,1.962508446793435
70,120,2.6085688801800395
140,10,2.9815279117278792
20,130,2.1817985251646004
80,30,2.587897608410436
150,130,3.0630410812871296
130,190,3.1967341562512157
80,10,2.739177098000048
160,170,3.114117984177592
130,30,2.473065584923932
160,110,2.7142033370221066
160,130,2.875640457953189
50,190,2.5243208085889823
150,110,2.816009938937092
50,100,2.5855057845175633
70,100,2.6996476594201635
140,80,2.726483440987369
140,1,5.456066748403502
40,120,2.175745323183656
100,50,2.8584707827378137
40,1,5.3654965884044215
190,10,2.625158499478
110,70,2.9205204288772695
170,50,2.4741564999684096
40,180,2.392620443364317
50,10,3.026865090593707
130,50,2.6924172076240374
70,170,3.1246486485034475
150,180,3.278153019192958
20,50,2.9823826092794747
50,110,2.4367631300318484
130,140,3.42600808042354
90,1,5.498297455943377
90,10,2.5520994856213095
20,170,2.458229619955177
80,180,2.855715510819585
160,70,2.66158617101359
160,30,2.1469330447330948
20,40,3.088303695374617
20,150,2.4167470769959447
130,80,2.7554509293358853
170,130,2.8259119461584947
160,10,2.5942563514258987
90,60,2.891867994756013
150,1,5.270408379151705
60,40,2.872584075761956
1,60,3.5246883573331678
1,90,3.4455859195086393
190,120,2.7587187571251217
50,160,2.7099594573191053
70,130,2.6393109045255816
1,10,4.804314039212421
100,30,2.3782601853429446
60,90,2.7092853496063247
80,40,2.854343684504124
20,110,1.9621555830751893
70,60,3.053856229370143
50,1,6.205121633232586
60,130,2.4330976678823033
60,20,2.410473955412788
110,1,5.437309661419889
30,60,3.1359190039315386
50,120,2.4616310687664047
30,190,2.3185004381883876
10,120,2.428177635562114
90,30,2.3516638610171965
110,90,2.7373012301899537
170,140,3.2055237417718905
160,160,3.3272174969749404
140,50,2.9072840271380898
100,40,2.6712443810522166
80,1,5.656395443793702
130,180,3.1999525553636463
110,10,2.7777997226465456
90,170,2.998349209580514
40,50,3.160248433696234
90,140,3.047777971765734
30,90,2.278421784433594
40,30,3.152736361091117
100,180,3.174753806648859
150,90,2.689818240747948
180,60,2.3027409090119018
130,120,2.905521704597702
120,40,2.760579663058732
10,150,2.669686457458392
100,20,2.3185021560372348
130,150,3.3071902103662216
180,90,2.3099948839994795
160,90,2.4783367205585294
150,50,2.7665733580805547
190,30,2.1341094869381587
10,160,2.7275487647213703
120,10,2.6977131002718413
190,190,3.2283831894456116
70,50,2.9936706907128645
120,100,2.803713800080575
190,130,2.7688910419011994
140,140,3.509304179687811
40,40,3.125915174087127
180,50,2.468300900199705
90,190,2.9185855630146285
60,170,2.8807553270814967
40,150,2.513448336803639
100,60,2.8325865625865676
180,170,3.272218837237767
170,90,2.4694444912203113
150,120,2.875078725168463
60,120,2.4336943796422887
10,1,6.264534043656773
10,60,2.8308899054346854
10,20,3.607592991990384
70,90,2.8420276681553545
140,150,3.3967945436552727
190,40,2.2757176585548655
110,180,3.1180284514163312
140,20,2.3382613874529636
130,110,2.7550359024610995
40,80,2.541004120610585
180,150,3.1949369835525614
170,160,3.278501537903557
30,20,3.3744744215153397
90,70,2.8467508300858246
160,180,2.9975741412437906
1,80,3.491181796699492
10,40,3.1175959504596915
60,30,2.98001508590661
190,1,4.544190108586224
1,120,3.367442893230674
90,80,2.8185445572198176
120,30,2.328081679082645
100,160,3.1970819051820762
110,190,3.1126403123694364
140,130,3.136611183983298
110,80,3.0169899039836774
110,150,3.2668842866398693
40,110,2.124593983361432
50,140,2.9091607876919436
190,50,2.432383644797872
170,70,2.612599435562693
30,170,2.4451613633308615
20,90,2.2116870390687704
70,40,2.8616491441081755
180,140,3.032255673392339
70,80,2.9179499031395566
60,160,2.7188934775086246
30,140,2.5692269023173284
110,20,2.4036379767917264
80,120,2.559279867468984
190,70,2.6141577328068686
140,40,2.7971210636153745
150,70,2.7947282266717774
1,100,3.4358022807360196
1,180,3.4275527087710778
80,70,2.978634086574924
80,90,2.8316373636282415
40,60,2.9085688328974815
1,70,3.5672770894166397
190,150,3.29545726521749
130,130,3.0996102693901944
30,110,2.1092774894672837
90,180,2.928643829231874
170,150,3.3289430584499367
120,60,2.6010031142028236
50,20,2.540458898719991
120,130,2.9891643659918343
50,90,2.773062885292515
180,100,2.240443039341121
190,110,2.6658983357724044
40,160,2.5599442112416972
90,50,2.7382704602617856
1,20,4.323203290118704
100,70,2.9160682376211837
90,110,2.598793318675414
10,80,2.6093087371275594
130,70,2.852680451955062
60,180,2.863694138021604
1,190,3.474644005905884
70,150,3.0095265418921597
150,140,3.3981700664864922
140,100,2.8050933281207424
30,150,2.5243091380016964
30,130,2.227065203800028
110,110,2.946083014532581
170,120,2.7295730457059557
130,100,2.713260789512472
120,110,2.806390905540081
160,1,5.174448516981637
120,70,2.792005090577596
140,90,2.6932107435589363
190,160,3.275902346779195
120,150,3.282842281360943
180,30,2.1856011002589812
160,60,2.471339652747877
180,130,2.6790814857960754
30,180,2.3892013435290775
150,80,2.587044729299248
150,40,2.61555241083202
70,160,2.931576641247502
80,60,3.0685294716021634
80,110,2.5734760992994783
20,140,2.4827465197141247
40,20,2.7599659266041834
160,80,2.380076067805644
10,30,3.5062805686511975
150,150,3.3994907070273905
60,10,2.9260198311360046
100,90,2.825471255426893
100,1,5.481283150872743
90,160,2.870734956768452
110,100,3.0031360701765606
170,30,2.0834196006938277
110,170,3.178623910249827
1,110,3.3677369935833124
60,150,2.7861144279909866
160,100,2.5092137390178064
120,90,2.5042423152255173
180,40,2.3589715423262554
